{
  "project": "SELECT Id,OwnerId,IsDeleted,Name,CreatedDate,CreatedById,LastModifiedDate,LastModifiedById,SystemModstamp,LastActivityDate,Project_mission__c,Project_problem__c,Project_solution__c,Changemaker__r.Id,Changemaker__r.IsDeleted,Changemaker__r.MasterRecordId,Changemaker__r.AccountId,Changemaker__r.LastName,Changemaker__r.FirstName,Changemaker__r.Salutation,Changemaker__r.Name,Changemaker__r.RecordTypeId,Changemaker__r.OtherStreet,Changemaker__r.OtherCity,Changemaker__r.OtherState,Changemaker__r.OtherPostalCode,Changemaker__r.OtherCountry,Changemaker__r.MailingStreet,Changemaker__r.MailingCity,Changemaker__r.MailingState,Changemaker__r.MailingPostalCode,Changemaker__r.MailingCountry,Changemaker__r.Phone,Changemaker__r.Fax,Changemaker__r.MobilePhone,Changemaker__r.HomePhone,Changemaker__r.OtherPhone,Changemaker__r.AssistantPhone,Changemaker__r.ReportsToId,Changemaker__r.Email,Changemaker__r.Title,Changemaker__r.Department,Changemaker__r.AssistantName,Changemaker__r.LeadSource,Changemaker__r.Birthdate,Changemaker__r.Description,Changemaker__r.OwnerId,Changemaker__r.CreatedDate,Changemaker__r.CreatedById,Changemaker__r.LastModifiedDate,Changemaker__r.LastModifiedById,Changemaker__r.SystemModstamp,Changemaker__r.LastActivityDate,Changemaker__r.LastCURequestDate,Changemaker__r.LastCUUpdateDate,Changemaker__r.EmailBouncedReason,Changemaker__r.EmailBouncedDate,Changemaker__r.JigsawContactId,Changemaker__r.Story__c,Changemaker__r.Headshot_image_URL__c,Changemaker__r.npe01__AlternateEmail__c,Changemaker__r.npe01__HomeEmail__c,Changemaker__r.npe01__Home_Address__c,Changemaker__r.npe01__Last_Donation_Date__c,Changemaker__r.npe01__Lifetime_Giving_History_Amount__c,Changemaker__r.npe01__Organization_Type__c,Changemaker__r.npe01__Other_Address__c,Changemaker__r.npe01__PreferredPhone__c,Changemaker__r.npe01__Preferred_Email__c,Changemaker__r.npe01__Primary_Address_Type__c,Changemaker__r.npe01__Private__c,Changemaker__r.npe01__Secondary_Address_Type__c,Changemaker__r.npe01__SystemAccountProcessor__c,Changemaker__r.npe01__SystemIsIndividual__c,Changemaker__r.npe01__Type_of_Account__c,Changemaker__r.npe01__WorkEmail__c,Changemaker__r.npe01__WorkPhone__c,Changemaker__r.npe01__Work_Address__c,Changemaker__r.Accelerator__c,Changemaker__r.npo02__AverageAmount__c,Changemaker__r.npo02__Best_Gift_Year_Total__c,Changemaker__r.npo02__Best_Gift_Year__c,Changemaker__r.npo02__FirstCloseDate__c,Changemaker__r.npo02__Formula_HouseholdMailingAddress__c,Changemaker__r.npo02__Formula_HouseholdPhone__c,Changemaker__r.npo02__Household_Naming_Order__c,Changemaker__r.npo02__Household__c,Changemaker__r.npo02__Languages__c,Changemaker__r.npo02__LargestAmount__c,Changemaker__r.npo02__LastCloseDateHH__c,Changemaker__r.npo02__LastCloseDate__c,Changemaker__r.npo02__LastMembershipAmount__c,Changemaker__r.npo02__LastMembershipDate__c,Changemaker__r.npo02__LastMembershipLevel__c,Changemaker__r.npo02__LastMembershipOrigin__c,Changemaker__r.npo02__LastOppAmount__c,Changemaker__r.npo02__Level__c,Changemaker__r.npo02__MembershipEndDate__c,Changemaker__r.npo02__MembershipJoinDate__c,Changemaker__r.npo02__Naming_Exclusions__c,Changemaker__r.npo02__NumberOfClosedOpps__c,Changemaker__r.npo02__NumberOfMembershipOpps__c,Changemaker__r.npo02__OppAmount2YearsAgo__c,Changemaker__r.npo02__OppAmountLastNDays__c,Changemaker__r.npo02__OppAmountLastYearHH__c,Changemaker__r.npo02__OppAmountLastYear__c,Changemaker__r.npo02__OppAmountThisYearHH__c,Changemaker__r.npo02__OppAmountThisYear__c,Changemaker__r.npo02__OppsClosed2YearsAgo__c,Changemaker__r.npo02__OppsClosedLastNDays__c,Changemaker__r.npo02__OppsClosedLastYear__c,Changemaker__r.npo02__OppsClosedThisYear__c,Changemaker__r.npo02__SmallestAmount__c,Changemaker__r.npo02__Soft_Credit_Last_Year__c,Changemaker__r.npo02__Soft_Credit_This_Year__c,Changemaker__r.npo02__Soft_Credit_Total__c,Changemaker__r.npo02__Soft_Credit_Two_Years_Ago__c,Changemaker__r.npo02__SystemHouseholdProcessor__c,Changemaker__r.npo02__TotalMembershipOppAmount__c,Changemaker__r.npo02__TotalOppAmount__c,Changemaker__r.npo02__Total_Household_Gifts__c,Project_mission_raw__c,Project_problem_raw__c,Project_solution_raw__c,Launched__c,Publish_to_website__c,Video_URL__c,Country__r.Id,Country__r.OwnerId,Country__r.IsDeleted,Country__r.Name,Country__r.CreatedDate,Country__r.CreatedById,Country__r.LastModifiedDate,Country__r.LastModifiedById,Country__r.SystemModstamp,Country__r.LastActivityDate,Impact_category__r.Id,Impact_category__r.OwnerId,Impact_category__r.IsDeleted,Impact_category__r.Name,Impact_category__r.CreatedDate,Impact_category__r.CreatedById,Impact_category__r.LastModifiedDate,Impact_category__r.LastModifiedById,Impact_category__r.SystemModstamp,Impact_category__r.LastActivityDate FROM Project__c",
  "people": "SELECT Id,IsDeleted,MasterRecordId,AccountId,LastName,FirstName,Salutation,Name,RecordType.Id,RecordType.Name,RecordType.DeveloperName,RecordType.NamespacePrefix,RecordType.Description,RecordType.BusinessProcessId,RecordType.SobjectType,RecordType.IsActive,RecordType.CreatedById,RecordType.CreatedDate,RecordType.LastModifiedById,RecordType.LastModifiedDate,RecordType.SystemModstamp,OtherStreet,OtherCity,OtherState,OtherPostalCode,OtherCountry,MailingStreet,MailingCity,MailingState,MailingPostalCode,MailingCountry,Phone,Fax,MobilePhone,HomePhone,OtherPhone,AssistantPhone,ReportsToId,Email,Title,Department,AssistantName,LeadSource,Birthdate,Description,OwnerId,CreatedDate,CreatedById,LastModifiedDate,LastModifiedById,SystemModstamp,LastActivityDate,LastCURequestDate,LastCUUpdateDate,EmailBouncedReason,EmailBouncedDate,Story__c,Headshot_image_URL__c,npe01__AlternateEmail__c,npe01__HomeEmail__c,npe01__Home_Address__c,npe01__Last_Donation_Date__c,npe01__Lifetime_Giving_History_Amount__c,npe01__Organization_Type__c,npe01__Other_Address__c,npe01__PreferredPhone__c,npe01__Preferred_Email__c,npe01__Primary_Address_Type__c,npe01__Private__c,npe01__Secondary_Address_Type__c,npe01__SystemAccountProcessor__c,npe01__SystemIsIndividual__c,npe01__Type_of_Account__c,npe01__WorkEmail__c,npe01__WorkPhone__c,npe01__Work_Address__c,Accelerator__r.Id,Accelerator__r.OwnerId,Accelerator__r.IsDeleted,Accelerator__r.Name,Accelerator__r.CreatedDate,Accelerator__r.CreatedById,Accelerator__r.LastModifiedDate,Accelerator__r.LastModifiedById,Accelerator__r.SystemModstamp,Accelerator__r.LastActivityDate,Accelerator__r.Accelerator_start_date__c,Accelerator__r.Accelerator_end_date__c,Accelerator__r.Country__c,npo02__AverageAmount__c,npo02__Best_Gift_Year_Total__c,npo02__Best_Gift_Year__c,npo02__FirstCloseDate__c,npo02__Formula_HouseholdMailingAddress__c,npo02__Formula_HouseholdPhone__c,npo02__Household_Naming_Order__c,npo02__Household__r.Id,npo02__Household__r.OwnerId,npo02__Household__r.IsDeleted,npo02__Household__r.Name,npo02__Household__r.CreatedDate,npo02__Household__r.CreatedById,npo02__Household__r.LastModifiedDate,npo02__Household__r.LastModifiedById,npo02__Household__r.SystemModstamp,npo02__Household__r.LastActivityDate,npo02__Household__r.npo02__Addressee__c,npo02__Household__r.npo02__Always_Anonymous__c,npo02__Household__r.npo02__AverageAmount__c,npo02__Household__r.npo02__Best_Gift_Year_Total__c,npo02__Household__r.npo02__Best_Gift_Year__c,npo02__Household__r.npo02__FirstCloseDate__c,npo02__Household__r.npo02__Formal_Greeting__c,npo02__Household__r.npo02__Formula_MailingAddress__c,npo02__Household__r.npo02__HouseholdEmail__c,npo02__Household__r.npo02__HouseholdPhone__c,npo02__Household__r.npo02__Household_ID__c,npo02__Household__r.npo02__Informal_Greeting__c,npo02__Household__r.npo02__LargestAmount__c,npo02__Household__r.npo02__LastCloseDate__c,npo02__Household__r.npo02__LastMembershipAmount__c,npo02__Household__r.npo02__LastMembershipDate__c,npo02__Household__r.npo02__LastMembershipLevel__c,npo02__Household__r.npo02__LastMembershipOrigin__c,npo02__Household__r.npo02__LastOppAmount__c,npo02__Household__r.npo02__MailingCity__c,npo02__Household__r.npo02__MailingCountry__c,npo02__Household__r.npo02__MailingPostalCode__c,npo02__Household__r.npo02__MailingState__c,npo02__Household__r.npo02__MailingStreet__c,npo02__Household__r.npo02__MembershipEndDate__c,npo02__Household__r.npo02__MembershipJoinDate__c,npo02__Household__r.npo02__Membership_Span__c,npo02__Household__r.npo02__Membership_Status__c,npo02__Household__r.npo02__NumberOfClosedOpps__c,npo02__Household__r.npo02__NumberOfMembershipOpps__c,npo02__Household__r.npo02__OppAmount2YearsAgo__c,npo02__Household__r.npo02__OppAmountLastNDays__c,npo02__Household__r.npo02__OppAmountLastYear__c,npo02__Household__r.npo02__OppAmountThisYear__c,npo02__Household__r.npo02__OppsClosed2YearsAgo__c,npo02__Household__r.npo02__OppsClosedLastNDays__c,npo02__Household__r.npo02__OppsClosedLastYear__c,npo02__Household__r.npo02__OppsClosedThisYear__c,npo02__Household__r.npo02__SYSTEM_CUSTOM_NAMING__c,npo02__Household__r.npo02__SmallestAmount__c,npo02__Household__r.npo02__TotalMembershipOppAmount__c,npo02__Household__r.npo02__TotalOppAmount__c,npo02__Languages__c,npo02__LargestAmount__c,npo02__LastCloseDateHH__c,npo02__LastCloseDate__c,npo02__LastMembershipAmount__c,npo02__LastMembershipDate__c,npo02__LastMembershipLevel__c,npo02__LastMembershipOrigin__c,npo02__LastOppAmount__c,npo02__Level__c,npo02__MembershipEndDate__c,npo02__MembershipJoinDate__c,npo02__Naming_Exclusions__c,npo02__NumberOfClosedOpps__c,npo02__NumberOfMembershipOpps__c,npo02__OppAmount2YearsAgo__c,npo02__OppAmountLastNDays__c,npo02__OppAmountLastYearHH__c,npo02__OppAmountLastYear__c,npo02__OppAmountThisYearHH__c,npo02__OppAmountThisYear__c,npo02__OppsClosed2YearsAgo__c,npo02__OppsClosedLastNDays__c,npo02__OppsClosedLastYear__c,npo02__OppsClosedThisYear__c,npo02__SmallestAmount__c,npo02__Soft_Credit_Last_Year__c,npo02__Soft_Credit_This_Year__c,npo02__Soft_Credit_Total__c,npo02__Soft_Credit_Two_Years_Ago__c,npo02__SystemHouseholdProcessor__c,npo02__TotalMembershipOppAmount__c,npo02__TotalOppAmount__c,npo02__Total_Household_Gifts__c FROM Contact",
  "designations": "SELECT Id,OwnerId,IsDeleted,Name,CreatedDate,CreatedById,LastModifiedDate,LastModifiedById,SystemModstamp,donation_split__Active__c,donation_split__Description__c,donation_split__Maximum_Funds__c,donation_split__Minimum_Funds__c,donation_split__Order__c,Changemaker_Project__r.Id,Changemaker_Project__r.OwnerId,Changemaker_Project__r.IsDeleted,Changemaker_Project__r.Name,Changemaker_Project__r.CreatedDate,Changemaker_Project__r.CreatedById,Changemaker_Project__r.LastModifiedDate,Changemaker_Project__r.LastModifiedById,Changemaker_Project__r.SystemModstamp,Changemaker_Project__r.LastActivityDate,Changemaker_Project__r.Project_mission__c,Changemaker_Project__r.Project_problem__c,Changemaker_Project__r.Project_solution__c,Changemaker_Project__r.Changemaker__c,Changemaker_Project__r.Project_mission_raw__c,Changemaker_Project__r.Project_problem_raw__c,Changemaker_Project__r.Project_solution_raw__c,Changemaker_Project__r.Launched__c,Changemaker_Project__r.Publish_to_website__c,Changemaker_Project__r.Video_URL__c,Changemaker_Project__r.Country__c,Changemaker_Project__r.Impact_category__c,For_stage__c,Date_opened__c,Date_attained_mni__c,Date_attained_max__c,Date_granted__c,Description_short__c FROM donation_split__Designation__c",
  "designationBudgets": "SELECT Id,IsDeleted,Name,CreatedDate,CreatedById,LastModifiedDate,LastModifiedById,SystemModstamp,donation_split__Opportunity__r.Id,donation_split__Opportunity__r.IsDeleted,donation_split__Opportunity__r.AccountId,donation_split__Opportunity__r.RecordTypeId,donation_split__Opportunity__r.Name,donation_split__Opportunity__r.Description,donation_split__Opportunity__r.StageName,donation_split__Opportunity__r.Amount,donation_split__Opportunity__r.Probability,donation_split__Opportunity__r.CloseDate,donation_split__Opportunity__r.Type,donation_split__Opportunity__r.NextStep,donation_split__Opportunity__r.LeadSource,donation_split__Opportunity__r.IsClosed,donation_split__Opportunity__r.IsWon,donation_split__Opportunity__r.ForecastCategory,donation_split__Opportunity__r.ForecastCategoryName,donation_split__Opportunity__r.CampaignId,donation_split__Opportunity__r.HasOpportunityLineItem,donation_split__Opportunity__r.Pricebook2Id,donation_split__Opportunity__r.OwnerId,donation_split__Opportunity__r.CreatedDate,donation_split__Opportunity__r.CreatedById,donation_split__Opportunity__r.LastModifiedDate,donation_split__Opportunity__r.LastModifiedById,donation_split__Opportunity__r.SystemModstamp,donation_split__Opportunity__r.LastActivityDate,donation_split__Opportunity__r.FiscalQuarter,donation_split__Opportunity__r.FiscalYear,donation_split__Opportunity__r.Fiscal,donation_split__Opportunity__r.npe01__Amount_Outstanding__c,donation_split__Opportunity__r.npe01__Contact_Id_for_Role__c,donation_split__Opportunity__r.npe01__Do_Not_Automatically_Create_Payment__c,donation_split__Opportunity__r.npe01__Is_Opp_From_Individual__c,donation_split__Opportunity__r.npe01__Member_Level__c,donation_split__Opportunity__r.npe01__Membership_End_Date__c,donation_split__Opportunity__r.npe01__Membership_Origin__c,donation_split__Opportunity__r.npe01__Membership_Start_Date__c,donation_split__Opportunity__r.npe01__Amount_Written_Off__c,donation_split__Opportunity__r.npe01__Number_of_Payments__c,donation_split__Opportunity__r.npe01__Payments_Made__c,donation_split__Opportunity__r.npe03__Recurring_Donation__c,donation_split__Opportunity__r.npo02__CombinedRollupFieldset__c,donation_split__Opportunity__r.npo02__CurrentGenerators__c,donation_split__Opportunity__r.npo02__DeliveryInstallationStatus__c,donation_split__Opportunity__r.npo02__MainCompetitors__c,donation_split__Opportunity__r.npo02__OrderNumber__c,donation_split__Opportunity__r.npo02__TrackingNumber__c,donation_split__Opportunity__r.npo02__systemHouseholdContactRoleProcessor__c,donation_split__Amount__c,donation_split__Budget_Year__r.Id,donation_split__Budget_Year__r.OwnerId,donation_split__Budget_Year__r.IsDeleted,donation_split__Budget_Year__r.Name,donation_split__Budget_Year__r.CreatedDate,donation_split__Budget_Year__r.CreatedById,donation_split__Budget_Year__r.LastModifiedDate,donation_split__Budget_Year__r.LastModifiedById,donation_split__Budget_Year__r.SystemModstamp,donation_split__Budget_Year__r.donation_split__Active__c,donation_split__Budget_Year__r.donation_split__Description__c,donation_split__Budget_Year__r.donation_split__Maximum_Funds__c,donation_split__Budget_Year__r.donation_split__Minimum_Funds__c,donation_split__Budget_Year__r.donation_split__Order__c,donation_split__Designation__r.Id,donation_split__Designation__r.OwnerId,donation_split__Designation__r.IsDeleted,donation_split__Designation__r.Name,donation_split__Designation__r.CreatedDate,donation_split__Designation__r.CreatedById,donation_split__Designation__r.LastModifiedDate,donation_split__Designation__r.LastModifiedById,donation_split__Designation__r.SystemModstamp,donation_split__Designation__r.donation_split__Active__c,donation_split__Designation__r.donation_split__Description__c,donation_split__Designation__r.donation_split__Maximum_Funds__c,donation_split__Designation__r.donation_split__Minimum_Funds__c,donation_split__Designation__r.donation_split__Order__c,donation_split__Designation__r.Changemaker_Project__c,donation_split__Designation__r.For_stage__c,donation_split__Designation__r.Date_opened__c,donation_split__Designation__r.Date_attained_mni__c,donation_split__Designation__r.Date_attained_max__c,donation_split__Designation__r.Date_granted__c,donation_split__Designation__r.Description_short__c FROM donation_split__Designation_Budget__c",
  "budgetYears": "SELECT Id,OwnerId,IsDeleted,Name,CreatedDate,CreatedById,LastModifiedDate,LastModifiedById,SystemModstamp,donation_split__Active__c,donation_split__Description__c,donation_split__Maximum_Funds__c,donation_split__Minimum_Funds__c,donation_split__Order__c FROM donation_split__Budget_Year__c",
  "opportunities": "SELECT Id,IsDeleted,AccountId,RecordType.Id,RecordType.Name,RecordType.DeveloperName,RecordType.NamespacePrefix,RecordType.Description,RecordType.BusinessProcessId,RecordType.SobjectType,RecordType.IsActive,RecordType.CreatedById,RecordType.CreatedDate,RecordType.LastModifiedById,RecordType.LastModifiedDate,RecordType.SystemModstamp,Name,Description,StageName,Amount,Probability,CloseDate,Type,NextStep,LeadSource,IsClosed,IsWon,ForecastCategory,ForecastCategoryName,Campaign.Id,Campaign.IsDeleted,Campaign.Name,Campaign.ParentId,Campaign.Type,Campaign.Status,Campaign.StartDate,Campaign.EndDate,Campaign.ExpectedRevenue,Campaign.BudgetedCost,Campaign.ActualCost,Campaign.ExpectedResponse,Campaign.NumberSent,Campaign.IsActive,Campaign.Description,Campaign.NumberOfLeads,Campaign.NumberOfConvertedLeads,Campaign.NumberOfContacts,Campaign.NumberOfResponses,Campaign.NumberOfOpportunities,Campaign.NumberOfWonOpportunities,Campaign.AmountAllOpportunities,Campaign.AmountWonOpportunities,Campaign.OwnerId,Campaign.CreatedDate,Campaign.CreatedById,Campaign.LastModifiedDate,Campaign.LastModifiedById,Campaign.SystemModstamp,Campaign.LastActivityDate,Campaign.CampaignMemberRecordTypeId,HasOpportunityLineItem,Pricebook2Id,OwnerId,CreatedDate,CreatedById,LastModifiedDate,LastModifiedById,SystemModstamp,LastActivityDate,FiscalQuarter,FiscalYear,Fiscal,npe01__Amount_Outstanding__c,npe01__Contact_Id_for_Role__c,npe01__Do_Not_Automatically_Create_Payment__c,npe01__Is_Opp_From_Individual__c,npe01__Member_Level__c,npe01__Membership_End_Date__c,npe01__Membership_Origin__c,npe01__Membership_Start_Date__c,npe01__Amount_Written_Off__c,npe01__Number_of_Payments__c,npe01__Payments_Made__c,npe03__Recurring_Donation__r.Id,npe03__Recurring_Donation__r.OwnerId,npe03__Recurring_Donation__r.IsDeleted,npe03__Recurring_Donation__r.Name,npe03__Recurring_Donation__r.CreatedDate,npe03__Recurring_Donation__r.CreatedById,npe03__Recurring_Donation__r.LastModifiedDate,npe03__Recurring_Donation__r.LastModifiedById,npe03__Recurring_Donation__r.SystemModstamp,npe03__Recurring_Donation__r.npe03__Amount__c,npe03__Recurring_Donation__r.npe03__Contact__c,npe03__Recurring_Donation__r.npe03__Date_Established__c,npe03__Recurring_Donation__r.npe03__Donor_Name__c,npe03__Recurring_Donation__r.npe03__Installment_Amount__c,npe03__Recurring_Donation__r.npe03__Installment_Period__c,npe03__Recurring_Donation__r.npe03__Installments__c,npe03__Recurring_Donation__r.npe03__Last_Payment_Date__c,npe03__Recurring_Donation__r.npe03__Next_Payment_Date__c,npe03__Recurring_Donation__r.npe03__Open_Ended_Status__c,npe03__Recurring_Donation__r.npe03__Organization__c,npe03__Recurring_Donation__r.npe03__Paid_Amount__c,npe03__Recurring_Donation__r.npe03__Recurring_Donation_Campaign__c,npe03__Recurring_Donation__r.npe03__Schedule_Type__c,npe03__Recurring_Donation__r.npe03__Total_Paid_Installments__c,npe03__Recurring_Donation__r.npe03__Total__c,npo02__CombinedRollupFieldset__c,npo02__CurrentGenerators__c,npo02__DeliveryInstallationStatus__c,npo02__MainCompetitors__c,npo02__OrderNumber__c,npo02__TrackingNumber__c,npo02__systemHouseholdContactRoleProcessor__c FROM Opportunity",
  "opportunityContacts": "SELECT Id,Opportunity.Id,Opportunity.IsDeleted,Opportunity.AccountId,Opportunity.RecordTypeId,Opportunity.Name,Opportunity.Description,Opportunity.StageName,Opportunity.Amount,Opportunity.Probability,Opportunity.CloseDate,Opportunity.Type,Opportunity.NextStep,Opportunity.LeadSource,Opportunity.IsClosed,Opportunity.IsWon,Opportunity.ForecastCategory,Opportunity.ForecastCategoryName,Opportunity.CampaignId,Opportunity.HasOpportunityLineItem,Opportunity.Pricebook2Id,Opportunity.OwnerId,Opportunity.CreatedDate,Opportunity.CreatedById,Opportunity.LastModifiedDate,Opportunity.LastModifiedById,Opportunity.SystemModstamp,Opportunity.LastActivityDate,Opportunity.FiscalQuarter,Opportunity.FiscalYear,Opportunity.Fiscal,Opportunity.npe01__Amount_Outstanding__c,Opportunity.npe01__Contact_Id_for_Role__c,Opportunity.npe01__Do_Not_Automatically_Create_Payment__c,Opportunity.npe01__Is_Opp_From_Individual__c,Opportunity.npe01__Member_Level__c,Opportunity.npe01__Membership_End_Date__c,Opportunity.npe01__Membership_Origin__c,Opportunity.npe01__Membership_Start_Date__c,Opportunity.npe01__Amount_Written_Off__c,Opportunity.npe01__Number_of_Payments__c,Opportunity.npe01__Payments_Made__c,Opportunity.npe03__Recurring_Donation__c,Opportunity.npo02__CombinedRollupFieldset__c,Opportunity.npo02__CurrentGenerators__c,Opportunity.npo02__DeliveryInstallationStatus__c,Opportunity.npo02__MainCompetitors__c,Opportunity.npo02__OrderNumber__c,Opportunity.npo02__TrackingNumber__c,Opportunity.npo02__systemHouseholdContactRoleProcessor__c,Contact.Id,Contact.IsDeleted,Contact.MasterRecordId,Contact.AccountId,Contact.LastName,Contact.FirstName,Contact.Salutation,Contact.Name,Contact.RecordTypeId,Contact.OtherStreet,Contact.OtherCity,Contact.OtherState,Contact.OtherPostalCode,Contact.OtherCountry,Contact.MailingStreet,Contact.MailingCity,Contact.MailingState,Contact.MailingPostalCode,Contact.MailingCountry,Contact.Phone,Contact.Fax,Contact.MobilePhone,Contact.HomePhone,Contact.OtherPhone,Contact.AssistantPhone,Contact.ReportsToId,Contact.Email,Contact.Title,Contact.Department,Contact.AssistantName,Contact.LeadSource,Contact.Birthdate,Contact.Description,Contact.OwnerId,Contact.CreatedDate,Contact.CreatedById,Contact.LastModifiedDate,Contact.LastModifiedById,Contact.SystemModstamp,Contact.LastActivityDate,Contact.LastCURequestDate,Contact.LastCUUpdateDate,Contact.EmailBouncedReason,Contact.EmailBouncedDate,Contact.JigsawContactId,Contact.Story__c,Contact.Headshot_image_URL__c,Contact.npe01__AlternateEmail__c,Contact.npe01__HomeEmail__c,Contact.npe01__Home_Address__c,Contact.npe01__Last_Donation_Date__c,Contact.npe01__Lifetime_Giving_History_Amount__c,Contact.npe01__Organization_Type__c,Contact.npe01__Other_Address__c,Contact.npe01__PreferredPhone__c,Contact.npe01__Preferred_Email__c,Contact.npe01__Primary_Address_Type__c,Contact.npe01__Private__c,Contact.npe01__Secondary_Address_Type__c,Contact.npe01__SystemAccountProcessor__c,Contact.npe01__SystemIsIndividual__c,Contact.npe01__Type_of_Account__c,Contact.npe01__WorkEmail__c,Contact.npe01__WorkPhone__c,Contact.npe01__Work_Address__c,Contact.Accelerator__c,Contact.npo02__AverageAmount__c,Contact.npo02__Best_Gift_Year_Total__c,Contact.npo02__Best_Gift_Year__c,Contact.npo02__FirstCloseDate__c,Contact.npo02__Formula_HouseholdMailingAddress__c,Contact.npo02__Formula_HouseholdPhone__c,Contact.npo02__Household_Naming_Order__c,Contact.npo02__Household__c,Contact.npo02__Languages__c,Contact.npo02__LargestAmount__c,Contact.npo02__LastCloseDateHH__c,Contact.npo02__LastCloseDate__c,Contact.npo02__LastMembershipAmount__c,Contact.npo02__LastMembershipDate__c,Contact.npo02__LastMembershipLevel__c,Contact.npo02__LastMembershipOrigin__c,Contact.npo02__LastOppAmount__c,Contact.npo02__Level__c,Contact.npo02__MembershipEndDate__c,Contact.npo02__MembershipJoinDate__c,Contact.npo02__Naming_Exclusions__c,Contact.npo02__NumberOfClosedOpps__c,Contact.npo02__NumberOfMembershipOpps__c,Contact.npo02__OppAmount2YearsAgo__c,Contact.npo02__OppAmountLastNDays__c,Contact.npo02__OppAmountLastYearHH__c,Contact.npo02__OppAmountLastYear__c,Contact.npo02__OppAmountThisYearHH__c,Contact.npo02__OppAmountThisYear__c,Contact.npo02__OppsClosed2YearsAgo__c,Contact.npo02__OppsClosedLastNDays__c,Contact.npo02__OppsClosedLastYear__c,Contact.npo02__OppsClosedThisYear__c,Contact.npo02__SmallestAmount__c,Contact.npo02__Soft_Credit_Last_Year__c,Contact.npo02__Soft_Credit_This_Year__c,Contact.npo02__Soft_Credit_Total__c,Contact.npo02__Soft_Credit_Two_Years_Ago__c,Contact.npo02__SystemHouseholdProcessor__c,Contact.npo02__TotalMembershipOppAmount__c,Contact.npo02__TotalOppAmount__c,Contact.npo02__Total_Household_Gifts__c,Role,IsPrimary,CreatedDate,CreatedById,LastModifiedDate,LastModifiedById,SystemModstamp,IsDeleted FROM OpportunityContactRole",
  "recordTypes": "SELECT Id,Name,DeveloperName,NamespacePrefix,Description,BusinessProcessId,SobjectType,IsActive,CreatedById,CreatedDate,LastModifiedById,LastModifiedDate,SystemModstamp FROM RecordType"
}